ParticipantID,TrialID,BlockID,Condition,Grid,Time,Success
1,1,1,Courbure_taille,25,7.4042863845825195,Oui
1,2,2,Courbure_taille,49,6.310973405838013,Oui
1,3,3,Courbure,49,1.311004638671875,Oui
1,4,4,Courbure,36,0.7624263763427734,Oui
1,5,5,Taille,25,0.6733081340789795,Oui
1,6,6,Taille,36,0.6511673927307129,Oui
1,7,7,Taille,49,0.8335940837860107,Oui
1,8,8,Courbure,25,0.64813232421875,Oui
1,9,9,Courbure_taille,36,3.9982707500457764,Oui

2,10,1,Courbure_taille,36,3.86570405960083,Oui
2,11,2,Courbure,25,1.9425547122955322,Oui
2,12,3,Taille,25,1.2930309772491455,Oui
2,13,4,Courbure,49,2.7434463500976562,Oui
2,14,5,Taille,36,0.9319589138031006,Oui
2,15,6,Taille,49,0.8620269298553467,Oui
2,16,7,Courbure_taille,25,2.5944643020629883,Non
2,17,8,Courbure,36,1.6688446998596191,Oui
2,18,9,Courbure_taille,49,1.7146787643432617,Non

3,19,1,Courbure_taille,49,11.166958332061768,Oui
3,20,2,Courbure,36,2.8211281299591064,Oui
3,21,3,Taille,36,2.8516149520874023,Oui
3,22,4,Taille,25,1.6315233707427979,Oui
3,23,5,Taille,49,1.9106054306030273,Oui
3,24,6,Courbure_taille,25,8.437551259994507,Oui
3,25,7,Courbure_taille,36,6.135210752487183,Oui
3,26,8,Courbure,49,2.1633758544921875,Oui
3,27,9,Courbure,25,3.3965957164764404,Oui

4,28,1,Courbure,25,5.6345415115356445,Oui
4,29,2,Courbure,49,1.9739494323730469,Oui
4,30,3,Taille,49,3.301759958267212,Oui
4,31,4,Taille,36,1.7375624179840088,Oui
4,32,5,Courbure_taille,25,8.956536293029785,Oui
4,33,6,Courbure_taille,36,6.553899765014648,Oui
4,34,7,Courbure_taille,49,9.436038970947266,Oui
4,35,8,Taille,25,3.3177249431610107,Oui
4,36,9,Courbure,36,4.671416759490967,Oui
